com/blogmaster/security/service/JwtAuthenticationResponse.class
com/blogmaster/service/UserService.class
com/blogmaster/security/auth/jwt/JwtUserFactory.class
com/blogmaster/service/UserServiceBean.class
com/blogmaster/model/User.class
com/blogmaster/model/Role.class
com/blogmaster/config/WebSecurityConfig.class
com/blogmaster/BlogMasterApplication.class
com/blogmaster/security/auth/jwt/JwtTokenUtil.class
com/blogmaster/controller/AuthenticationRestController.class
com/blogmaster/repository/UserRepository.class
com/blogmaster/security/auth/jwt/JwtAuthenticationRequest.class
com/blogmaster/service/BlogService.class
com/blogmaster/controller/BlogRestController.class
com/blogmaster/service/BlogServiceBean.class
com/blogmaster/router/CamelRouter.class
com/blogmaster/model/Blog.class
com/blogmaster/security/auth/jwt/JwtAuthenticationEntryPoint.class
com/blogmaster/security/service/JwtUserDetailsServiceImpl.class
com/blogmaster/controller/UserRestController.class
com/blogmaster/security/auth/jwt/JwtAuthenticationTokenFilter.class
com/blogmaster/repository/BlogRepository.class
com/blogmaster/security/auth/jwt/JwtUser.class
